	params	rank_test_balanced_accuracy	mean_test_balanced_accuracy	std_test_balanced_accuracy	mean_test_precision	std_test_precision	mean_test_recall	std_test_recall	mean_test_roc_auc	std_test_roc_auc
0	{'algorithm': 'ball_tree', 'n_neighbors': 2, 'p': 1}	1	0.794	0.130	0.900	0.100	0.820	0.139	0.809	0.138
12	{'algorithm': 'brute', 'n_neighbors': 2, 'p': 1}	1	0.794	0.130	0.900	0.100	0.820	0.139	0.809	0.138
6	{'algorithm': 'kd_tree', 'n_neighbors': 2, 'p': 1}	1	0.794	0.130	0.900	0.100	0.820	0.139	0.809	0.138
1	{'algorithm': 'ball_tree', 'n_neighbors': 2, 'p': 2}	4	0.749	0.157	0.874	0.119	0.806	0.149	0.768	0.168
13	{'algorithm': 'brute', 'n_neighbors': 2, 'p': 2}	4	0.749	0.157	0.874	0.119	0.806	0.149	0.768	0.168
7	{'algorithm': 'kd_tree', 'n_neighbors': 2, 'p': 2}	4	0.749	0.157	0.874	0.119	0.806	0.149	0.768	0.168
11	{'algorithm': 'kd_tree', 'n_neighbors': 10, 'p': 2}	7	0.731	0.156	0.844	0.108	0.846	0.147	0.842	0.132
17	{'algorithm': 'brute', 'n_neighbors': 10, 'p': 2}	7	0.731	0.156	0.844	0.108	0.846	0.147	0.842	0.132
5	{'algorithm': 'ball_tree', 'n_neighbors': 10, 'p': 2}	7	0.731	0.156	0.844	0.108	0.846	0.147	0.842	0.132
16	{'algorithm': 'brute', 'n_neighbors': 10, 'p': 1}	10	0.727	0.154	0.829	0.103	0.898	0.128	0.848	0.133
10	{'algorithm': 'kd_tree', 'n_neighbors': 10, 'p': 1}	10	0.727	0.154	0.829	0.103	0.898	0.128	0.848	0.133
4	{'algorithm': 'ball_tree', 'n_neighbors': 10, 'p': 1}	10	0.727	0.154	0.829	0.103	0.898	0.128	0.848	0.133
9	{'algorithm': 'kd_tree', 'n_neighbors': 5, 'p': 2}	13	0.719	0.154	0.823	0.102	0.909	0.111	0.825	0.155
3	{'algorithm': 'ball_tree', 'n_neighbors': 5, 'p': 2}	13	0.719	0.154	0.823	0.102	0.909	0.111	0.825	0.155
15	{'algorithm': 'brute', 'n_neighbors': 5, 'p': 2}	13	0.719	0.154	0.823	0.102	0.909	0.111	0.825	0.155
2	{'algorithm': 'ball_tree', 'n_neighbors': 5, 'p': 1}	16	0.715	0.146	0.822	0.097	0.906	0.103	0.863	0.127
14	{'algorithm': 'brute', 'n_neighbors': 5, 'p': 1}	16	0.715	0.146	0.822	0.097	0.906	0.103	0.863	0.127
8	{'algorithm': 'kd_tree', 'n_neighbors': 5, 'p': 1}	16	0.715	0.146	0.822	0.097	0.906	0.103	0.863	0.127
Testing - Accuracy: 0.819 | Precision: 0.889 | Recall: 0.889 | F1: 0.889 | ROC_AUC: 0.819
