Feature	Mean	STD
ORF6	0.000	0.003
ORF7a	0.001	0.005
ORF10	0.022	0.023
ORF8	0.026	0.022
ORF7b	0.039	0.023
envelope	0.042	0.000
ORF3a	0.046	0.032
membrane glycoprotein	0.052	0.029
surface glycoprotein	0.076	0.029
ORF1ab	0.093	0.056
nucleocapsid phosphoprotein	0.186	0.058
