Feature	Mean	STD
ORF8	-0.041	0.009
membrane glycoprotein	-0.025	0.023
surface glycoprotein	-0.019	0.056
ORF7a	-0.002	0.006
envelope	0.000	0.000
ORF6	0.000	0.000
ORF3a	0.002	0.035
ORF7b	0.004	0.028
ORF10	0.007	0.013
ORF1ab	0.023	0.052
nucleocapsid phosphoprotein	0.125	0.066
