	params	rank_test_balanced_accuracy	mean_test_balanced_accuracy	std_test_balanced_accuracy	mean_test_precision	std_test_precision	mean_test_recall	std_test_recall	mean_test_roc_auc	std_test_roc_auc
0	{'max_depth': 10, 'max_features': None}	1	0.739	0.137	0.849	0.103	0.859	0.134	0.739	0.137
1	{'max_depth': 30, 'max_features': None}	1	0.739	0.137	0.849	0.103	0.859	0.134	0.739	0.137
2	{'max_depth': 90, 'max_features': None}	1	0.739	0.137	0.849	0.103	0.859	0.134	0.739	0.137
Testing - Accuracy: 0.681 | Precision: 0.808 | Recall: 0.778 | F1: 0.792 | ROC_AUC: 0.681
