	params	rank_test_balanced_accuracy	mean_test_balanced_accuracy	std_test_balanced_accuracy	mean_test_precision	std_test_precision	mean_test_recall	std_test_recall	mean_test_roc_auc	std_test_roc_auc
0	{'max_depth': 10, 'max_features': None}	1	0.738	0.167	0.859	0.115	0.819	0.182	0.738	0.167
1	{'max_depth': 30, 'max_features': None}	1	0.738	0.167	0.859	0.115	0.819	0.182	0.738	0.167
2	{'max_depth': 90, 'max_features': None}	1	0.738	0.167	0.859	0.115	0.819	0.182	0.738	0.167
Testing - Accuracy: 0.843 | Precision: 0.920 | Recall: 0.852 | F1: 0.885 | ROC_AUC: 0.843
