	params	rank_test_balanced_accuracy	mean_test_balanced_accuracy	std_test_balanced_accuracy	mean_test_precision	std_test_precision	mean_test_recall	std_test_recall	mean_test_roc_auc	std_test_roc_auc
0	{'max_depth': 10, 'max_features': None}	1	0.788	0.148	0.882	0.109	0.862	0.137	0.788	0.148
1	{'max_depth': 30, 'max_features': None}	1	0.788	0.148	0.882	0.109	0.862	0.137	0.788	0.148
2	{'max_depth': 90, 'max_features': None}	1	0.788	0.148	0.882	0.109	0.862	0.137	0.788	0.148
Testing - Accuracy: 0.782 | Precision: 0.880 | Recall: 0.815 | F1: 0.846 | ROC_AUC: 0.782
