Feature	Mean	STD
ORF3a	-0.011	0.030
envelope	0.000	0.000
ORF6	0.000	0.000
ORF7a	0.000	0.000
ORF10	0.000	0.000
ORF8	0.006	0.014
membrane glycoprotein	0.019	0.033
surface glycoprotein	0.032	0.018
ORF1ab	0.035	0.046
ORF7b	0.049	0.026
nucleocapsid phosphoprotein	0.246	0.077
