Feature	Mean	STD
ORF6	-0.017	0.019
surface glycoprotein	-0.008	0.024
ORF8	-0.005	0.054
envelope	0.000	0.000
membrane glycoprotein	0.000	0.000
ORF7a	0.000	0.000
ORF3a	0.009	0.009
ORF1ab	0.050	0.056
ORF10	0.059	0.052
nucleocapsid phosphoprotein	0.097	0.032
ORF7b	0.125	0.068
