PC1	PC2	Feature
0.24065	-0.03491	ORF1ab
-0.09985	0.11612	surface glycoprotein
-0.00133	0.03100	ORF3a
0.00074	0.00081	envelope
-0.01619	0.01940	membrane glycoprotein
-0.00032	0.00078	ORF6
-0.00501	-0.00519	ORF7a
0.01317	0.00825	ORF7b
-0.00345	0.00946	ORF8
-0.13123	-0.15411	nucleocapsid phosphoprotein
0.00282	0.00839	ORF10
