	params	rank_test_balanced_accuracy	mean_test_balanced_accuracy	std_test_balanced_accuracy	mean_test_precision	std_test_precision	mean_test_recall	std_test_recall	mean_test_roc_auc	std_test_roc_auc
0	{'var_smoothing': 1e-09}	1	0.829	0.130	0.909	0.097	0.878	0.135	0.912	0.108
1	{'var_smoothing': 1e-08}	1	0.829	0.130	0.909	0.097	0.878	0.135	0.912	0.108
2	{'var_smoothing': 1e-07}	1	0.829	0.130	0.909	0.097	0.878	0.135	0.912	0.108
Testing - Accuracy: 0.903 | Precision: 0.960 | Recall: 0.889 | F1: 0.923 | ROC_AUC: 0.903
