	params	rank_test_balanced_accuracy	mean_test_balanced_accuracy	std_test_balanced_accuracy	mean_test_precision	std_test_precision	mean_test_recall	std_test_recall	mean_test_roc_auc	std_test_roc_auc
0	{'max_depth': 10, 'max_features': None}	1	0.783	0.165	0.877	0.109	0.880	0.134	0.783	0.165
1	{'max_depth': 30, 'max_features': None}	1	0.783	0.165	0.877	0.109	0.880	0.134	0.783	0.165
2	{'max_depth': 90, 'max_features': None}	1	0.783	0.165	0.877	0.109	0.880	0.134	0.783	0.165
Testing - Accuracy: 0.778 | Precision: 0.857 | Recall: 0.889 | F1: 0.873 | ROC_AUC: 0.778
