	params	rank_test_balanced_accuracy	mean_test_balanced_accuracy	std_test_balanced_accuracy	mean_test_precision	std_test_precision	mean_test_recall	std_test_recall	mean_test_roc_auc	std_test_roc_auc
0	{'max_depth': 10, 'max_features': None}	1	0.821	0.135	0.905	0.100	0.878	0.138	0.821	0.135
1	{'max_depth': 30, 'max_features': None}	1	0.821	0.135	0.905	0.100	0.878	0.138	0.821	0.135
2	{'max_depth': 90, 'max_features': None}	1	0.821	0.135	0.905	0.100	0.878	0.138	0.821	0.135
Testing - Accuracy: 0.718 | Precision: 0.821 | Recall: 0.852 | F1: 0.836 | ROC_AUC: 0.718
