	params	rank_test_balanced_accuracy	mean_test_balanced_accuracy	std_test_balanced_accuracy	mean_test_precision	std_test_precision	mean_test_recall	std_test_recall	mean_test_roc_auc	std_test_roc_auc
8	{'C': 10, 'gamma': 1, 'kernel': 'rbf'}	1	0.836	0.144	0.911	0.096	0.924	0.115	0.937	0.093
13	{'C': 100, 'gamma': 0.1, 'kernel': 'rbf'}	2	0.832	0.139	0.910	0.097	0.911	0.126	0.936	0.094
12	{'C': 100, 'gamma': 1, 'kernel': 'rbf'}	3	0.816	0.146	0.897	0.097	0.917	0.116	0.902	0.119
14	{'C': 100, 'gamma': 0.01, 'kernel': 'rbf'}	4	0.647	0.140	0.774	0.087	0.985	0.054	0.922	0.096
9	{'C': 10, 'gamma': 0.1, 'kernel': 'rbf'}	5	0.636	0.131	0.768	0.082	0.986	0.052	0.923	0.095
4	{'C': 1, 'gamma': 1, 'kernel': 'rbf'}	6	0.606	0.128	0.751	0.084	0.997	0.022	0.924	0.094
0	{'C': 0.1, 'gamma': 1, 'kernel': 'rbf'}	7	0.500	0.000	0.700	0.051	1.000	0.000	0.922	0.098
1	{'C': 0.1, 'gamma': 0.1, 'kernel': 'rbf'}	7	0.500	0.000	0.700	0.051	1.000	0.000	0.910	0.109
2	{'C': 0.1, 'gamma': 0.01, 'kernel': 'rbf'}	7	0.500	0.000	0.700	0.051	1.000	0.000	0.900	0.116
3	{'C': 0.1, 'gamma': 0.001, 'kernel': 'rbf'}	7	0.500	0.000	0.700	0.051	1.000	0.000	0.899	0.122
5	{'C': 1, 'gamma': 0.1, 'kernel': 'rbf'}	7	0.500	0.000	0.700	0.051	1.000	0.000	0.909	0.109
6	{'C': 1, 'gamma': 0.01, 'kernel': 'rbf'}	7	0.500	0.000	0.700	0.051	1.000	0.000	0.906	0.109
7	{'C': 1, 'gamma': 0.001, 'kernel': 'rbf'}	7	0.500	0.000	0.700	0.051	1.000	0.000	0.900	0.116
10	{'C': 10, 'gamma': 0.01, 'kernel': 'rbf'}	7	0.500	0.000	0.700	0.051	1.000	0.000	0.906	0.109
11	{'C': 10, 'gamma': 0.001, 'kernel': 'rbf'}	7	0.500	0.000	0.700	0.051	1.000	0.000	0.904	0.110
15	{'C': 100, 'gamma': 0.001, 'kernel': 'rbf'}	7	0.500	0.000	0.700	0.051	1.000	0.000	0.905	0.109
Testing - Accuracy: 0.940 | Precision: 0.963 | Recall: 0.963 | F1: 0.963 | ROC_AUC: 0.940
