	params	rank_test_balanced_accuracy	mean_test_balanced_accuracy	std_test_balanced_accuracy	mean_test_precision	std_test_precision	mean_test_recall	std_test_recall	mean_test_roc_auc	std_test_roc_auc
0	{'bootstrap': True, 'max_depth': 10, 'max_features': None, 'n_estimators': 10}	1	0.754	0.157	0.857	0.110	0.861	0.140	0.810	0.189
3	{'bootstrap': True, 'max_depth': 30, 'max_features': None, 'n_estimators': 10}	1	0.754	0.157	0.857	0.110	0.861	0.140	0.810	0.189
6	{'bootstrap': True, 'max_depth': 90, 'max_features': None, 'n_estimators': 10}	1	0.754	0.157	0.857	0.110	0.861	0.140	0.810	0.189
1	{'bootstrap': True, 'max_depth': 10, 'max_features': None, 'n_estimators': 50}	4	0.751	0.159	0.853	0.111	0.880	0.125	0.834	0.189
4	{'bootstrap': True, 'max_depth': 30, 'max_features': None, 'n_estimators': 50}	4	0.751	0.159	0.853	0.111	0.880	0.125	0.835	0.189
7	{'bootstrap': True, 'max_depth': 90, 'max_features': None, 'n_estimators': 50}	4	0.751	0.159	0.853	0.111	0.880	0.125	0.835	0.189
2	{'bootstrap': True, 'max_depth': 10, 'max_features': None, 'n_estimators': 100}	7	0.751	0.161	0.854	0.111	0.876	0.128	0.833	0.190
5	{'bootstrap': True, 'max_depth': 30, 'max_features': None, 'n_estimators': 100}	7	0.751	0.161	0.854	0.111	0.876	0.128	0.833	0.190
8	{'bootstrap': True, 'max_depth': 90, 'max_features': None, 'n_estimators': 100}	7	0.751	0.161	0.854	0.111	0.876	0.128	0.833	0.190
Testing - Accuracy: 0.884 | Precision: 0.958 | Recall: 0.852 | F1: 0.902 | ROC_AUC: 0.884
