	params	rank_test_balanced_accuracy	mean_test_balanced_accuracy	std_test_balanced_accuracy	mean_test_precision	std_test_precision	mean_test_recall	std_test_recall	mean_test_roc_auc	std_test_roc_auc
8	{'C': 10, 'gamma': 1, 'kernel': 'rbf'}	1	0.819	0.147	0.889	0.098	0.937	0.110	0.913	0.107
13	{'C': 100, 'gamma': 0.1, 'kernel': 'rbf'}	2	0.812	0.150	0.895	0.102	0.903	0.129	0.923	0.104
12	{'C': 100, 'gamma': 1, 'kernel': 'rbf'}	3	0.805	0.151	0.881	0.099	0.939	0.107	0.874	0.147
14	{'C': 100, 'gamma': 0.01, 'kernel': 'rbf'}	4	0.538	0.083	0.716	0.068	0.997	0.022	0.884	0.109
9	{'C': 10, 'gamma': 0.1, 'kernel': 'rbf'}	5	0.536	0.082	0.716	0.068	0.997	0.022	0.890	0.109
4	{'C': 1, 'gamma': 1, 'kernel': 'rbf'}	6	0.507	0.039	0.703	0.056	1.000	0.000	0.898	0.105
0	{'C': 0.1, 'gamma': 1, 'kernel': 'rbf'}	7	0.500	0.000	0.700	0.051	1.000	0.000	0.897	0.106
1	{'C': 0.1, 'gamma': 0.1, 'kernel': 'rbf'}	7	0.500	0.000	0.700	0.051	1.000	0.000	0.876	0.118
2	{'C': 0.1, 'gamma': 0.01, 'kernel': 'rbf'}	7	0.500	0.000	0.700	0.051	1.000	0.000	0.867	0.126
3	{'C': 0.1, 'gamma': 0.001, 'kernel': 'rbf'}	7	0.500	0.000	0.700	0.051	1.000	0.000	0.854	0.131
5	{'C': 1, 'gamma': 0.1, 'kernel': 'rbf'}	7	0.500	0.000	0.700	0.051	1.000	0.000	0.877	0.118
6	{'C': 1, 'gamma': 0.01, 'kernel': 'rbf'}	7	0.500	0.000	0.700	0.051	1.000	0.000	0.872	0.121
7	{'C': 1, 'gamma': 0.001, 'kernel': 'rbf'}	7	0.500	0.000	0.700	0.051	1.000	0.000	0.866	0.125
10	{'C': 10, 'gamma': 0.01, 'kernel': 'rbf'}	7	0.500	0.000	0.700	0.051	1.000	0.000	0.873	0.117
11	{'C': 10, 'gamma': 0.001, 'kernel': 'rbf'}	7	0.500	0.000	0.700	0.051	1.000	0.000	0.872	0.121
15	{'C': 100, 'gamma': 0.001, 'kernel': 'rbf'}	7	0.500	0.000	0.700	0.051	1.000	0.000	0.873	0.118
Testing - Accuracy: 0.940 | Precision: 0.963 | Recall: 0.963 | F1: 0.963 | ROC_AUC: 0.940
