	params	rank_test_balanced_accuracy	mean_test_balanced_accuracy	std_test_balanced_accuracy	mean_test_precision	std_test_precision	mean_test_recall	std_test_recall	mean_test_roc_auc	std_test_roc_auc
13	{'C': 100, 'gamma': 0.1, 'kernel': 'rbf'}	1	0.867	0.149	0.918	0.097	0.955	0.081	0.959	0.068
8	{'C': 10, 'gamma': 1, 'kernel': 'rbf'}	2	0.848	0.149	0.906	0.096	0.960	0.079	0.953	0.068
12	{'C': 100, 'gamma': 1, 'kernel': 'rbf'}	3	0.846	0.143	0.906	0.094	0.951	0.083	0.920	0.111
14	{'C': 100, 'gamma': 0.01, 'kernel': 'rbf'}	4	0.659	0.151	0.782	0.090	0.998	0.017	0.933	0.089
9	{'C': 10, 'gamma': 0.1, 'kernel': 'rbf'}	5	0.641	0.148	0.771	0.090	0.998	0.017	0.937	0.087
4	{'C': 1, 'gamma': 1, 'kernel': 'rbf'}	6	0.544	0.095	0.720	0.072	1.000	0.000	0.934	0.087
0	{'C': 0.1, 'gamma': 1, 'kernel': 'rbf'}	7	0.500	0.000	0.700	0.051	1.000	0.000	0.928	0.093
1	{'C': 0.1, 'gamma': 0.1, 'kernel': 'rbf'}	7	0.500	0.000	0.700	0.051	1.000	0.000	0.915	0.108
2	{'C': 0.1, 'gamma': 0.01, 'kernel': 'rbf'}	7	0.500	0.000	0.700	0.051	1.000	0.000	0.901	0.119
3	{'C': 0.1, 'gamma': 0.001, 'kernel': 'rbf'}	7	0.500	0.000	0.700	0.051	1.000	0.000	0.890	0.126
5	{'C': 1, 'gamma': 0.1, 'kernel': 'rbf'}	7	0.500	0.000	0.700	0.051	1.000	0.000	0.917	0.107
6	{'C': 1, 'gamma': 0.01, 'kernel': 'rbf'}	7	0.500	0.000	0.700	0.051	1.000	0.000	0.915	0.106
7	{'C': 1, 'gamma': 0.001, 'kernel': 'rbf'}	7	0.500	0.000	0.700	0.051	1.000	0.000	0.901	0.119
10	{'C': 10, 'gamma': 0.01, 'kernel': 'rbf'}	7	0.500	0.000	0.700	0.051	1.000	0.000	0.915	0.106
11	{'C': 10, 'gamma': 0.001, 'kernel': 'rbf'}	7	0.500	0.000	0.700	0.051	1.000	0.000	0.913	0.107
15	{'C': 100, 'gamma': 0.001, 'kernel': 'rbf'}	7	0.500	0.000	0.700	0.051	1.000	0.000	0.914	0.107
Testing - Accuracy: 0.819 | Precision: 0.889 | Recall: 0.889 | F1: 0.889 | ROC_AUC: 0.819
