Feature	Mean	STD
ORF3a	-0.035	0.042
ORF8	-0.013	0.008
ORF10	-0.011	0.025
surface glycoprotein	0.000	0.000
envelope	0.000	0.000
ORF6	0.000	0.000
ORF7a	0.000	0.000
membrane glycoprotein	0.014	0.024
ORF1ab	0.107	0.050
ORF7b	0.161	0.048
nucleocapsid phosphoprotein	0.274	0.073
