Feature	Mean	STD
surface glycoprotein	-0.008	0.016
ORF6	-0.007	0.009
ORF8	-0.006	0.009
ORF7a	-0.004	0.008
envelope	0.000	0.000
ORF10	0.036	0.022
membrane glycoprotein	0.036	0.030
ORF3a	0.048	0.023
ORF1ab	0.108	0.037
ORF7b	0.204	0.068
nucleocapsid phosphoprotein	0.229	0.056
