Feature	Mean	STD
surface glycoprotein	-0.008	0.016
ORF10	-0.006	0.019
ORF3a	-0.000	0.007
envelope	0.000	0.000
ORF6	0.000	0.000
ORF8	0.000	0.000
ORF7a	0.001	0.005
membrane glycoprotein	0.027	0.031
ORF1ab	0.045	0.046
ORF7b	0.158	0.044
nucleocapsid phosphoprotein	0.232	0.081
