Feature	Mean	STD
ORF7a	-0.001	0.011
envelope	0.000	0.000
ORF6	0.000	0.000
ORF8	0.000	0.000
surface glycoprotein	0.016	0.022
membrane glycoprotein	0.036	0.028
ORF3a	0.055	0.031
ORF10	0.056	0.030
ORF1ab	0.069	0.052
nucleocapsid phosphoprotein	0.277	0.061
ORF7b	0.285	0.058
