	params	rank_test_balanced_accuracy	mean_test_balanced_accuracy	std_test_balanced_accuracy	mean_test_precision	std_test_precision	mean_test_recall	std_test_recall	mean_test_roc_auc	std_test_roc_auc
0	{'var_smoothing': 1e-09}	1	0.858	0.131	0.929	0.092	0.888	0.125	0.910	0.126
1	{'var_smoothing': 1e-08}	1	0.858	0.131	0.929	0.092	0.888	0.125	0.910	0.126
2	{'var_smoothing': 1e-07}	1	0.858	0.131	0.929	0.092	0.888	0.125	0.910	0.126
Testing - Accuracy: 0.782 | Precision: 0.880 | Recall: 0.815 | F1: 0.846 | ROC_AUC: 0.782
