Feature	Mean	STD
ORF8	-0.045	0.032
ORF6	-0.041	0.011
surface glycoprotein	-0.022	0.014
nucleocapsid phosphoprotein	-0.006	0.044
ORF1ab	0.002	0.011
ORF7a	0.002	0.018
envelope	0.017	0.036
membrane glycoprotein	0.025	0.024
ORF3a	0.029	0.027
ORF10	0.035	0.025
ORF7b	0.147	0.048
