"","Var1","Var2","unique_CDR3_counts"
"1","membrane glycoprotein","Celiac disease",1
"5","surface glycoprotein","Celiac disease",3
"6","membrane glycoprotein","Diabetes Type 1",1
"7","nucleocapsid phosphoprotein","Diabetes Type 1",2
"10","surface glycoprotein","Diabetes Type 1",1
"11","membrane glycoprotein","HIV",1
"15","surface glycoprotein","HIV",1
"19","ORF7a","Inflammatory bowel disease (IBD) ",1
"20","surface glycoprotein","Inflammatory bowel disease (IBD) ",1
"21","membrane glycoprotein","M.tuberculosis",2
"22","nucleocapsid phosphoprotein","M.tuberculosis",8
"23","ORF3a","M.tuberculosis",4
"25","surface glycoprotein","M.tuberculosis",15
