	params	rank_test_balanced_accuracy	mean_test_balanced_accuracy	std_test_balanced_accuracy	mean_test_precision	std_test_precision	mean_test_recall	std_test_recall	mean_test_roc_auc	std_test_roc_auc
0	{'bootstrap': True, 'max_depth': 10, 'max_features': None, 'n_estimators': 10}	1	0.810	0.150	0.893	0.104	0.897	0.139	0.867	0.150
3	{'bootstrap': True, 'max_depth': 30, 'max_features': None, 'n_estimators': 10}	1	0.810	0.150	0.893	0.104	0.897	0.139	0.867	0.150
6	{'bootstrap': True, 'max_depth': 90, 'max_features': None, 'n_estimators': 10}	1	0.810	0.150	0.893	0.104	0.897	0.139	0.867	0.150
1	{'bootstrap': True, 'max_depth': 10, 'max_features': None, 'n_estimators': 50}	4	0.794	0.174	0.882	0.119	0.903	0.139	0.877	0.162
4	{'bootstrap': True, 'max_depth': 30, 'max_features': None, 'n_estimators': 50}	4	0.794	0.174	0.882	0.119	0.903	0.139	0.877	0.162
7	{'bootstrap': True, 'max_depth': 90, 'max_features': None, 'n_estimators': 50}	4	0.794	0.174	0.882	0.119	0.903	0.139	0.877	0.162
2	{'bootstrap': True, 'max_depth': 10, 'max_features': None, 'n_estimators': 100}	7	0.786	0.174	0.876	0.115	0.914	0.133	0.873	0.158
5	{'bootstrap': True, 'max_depth': 30, 'max_features': None, 'n_estimators': 100}	7	0.786	0.174	0.876	0.115	0.914	0.133	0.873	0.158
8	{'bootstrap': True, 'max_depth': 90, 'max_features': None, 'n_estimators': 100}	7	0.786	0.174	0.876	0.115	0.914	0.133	0.873	0.158
Testing - Accuracy: 0.838 | Precision: 0.893 | Recall: 0.926 | F1: 0.909 | ROC_AUC: 0.838
