	params	rank_test_balanced_accuracy	mean_test_balanced_accuracy	std_test_balanced_accuracy	mean_test_precision	std_test_precision	mean_test_recall	std_test_recall	mean_test_roc_auc	std_test_roc_auc
0	{'bootstrap': True, 'max_depth': 10, 'max_features': None, 'n_estimators': 10}	1	0.753	0.158	0.858	0.112	0.859	0.131	0.831	0.157
3	{'bootstrap': True, 'max_depth': 30, 'max_features': None, 'n_estimators': 10}	1	0.753	0.158	0.858	0.112	0.859	0.131	0.831	0.157
6	{'bootstrap': True, 'max_depth': 90, 'max_features': None, 'n_estimators': 10}	1	0.753	0.158	0.858	0.112	0.859	0.131	0.831	0.157
2	{'bootstrap': True, 'max_depth': 10, 'max_features': None, 'n_estimators': 100}	4	0.716	0.160	0.824	0.102	0.908	0.113	0.856	0.158
5	{'bootstrap': True, 'max_depth': 30, 'max_features': None, 'n_estimators': 100}	4	0.716	0.160	0.824	0.102	0.908	0.113	0.856	0.158
8	{'bootstrap': True, 'max_depth': 90, 'max_features': None, 'n_estimators': 100}	4	0.716	0.160	0.824	0.102	0.908	0.113	0.856	0.158
1	{'bootstrap': True, 'max_depth': 10, 'max_features': None, 'n_estimators': 50}	7	0.714	0.167	0.822	0.107	0.899	0.119	0.846	0.167
4	{'bootstrap': True, 'max_depth': 30, 'max_features': None, 'n_estimators': 50}	7	0.714	0.167	0.822	0.107	0.899	0.119	0.846	0.167
7	{'bootstrap': True, 'max_depth': 90, 'max_features': None, 'n_estimators': 50}	7	0.714	0.167	0.822	0.107	0.899	0.119	0.846	0.167
Testing - Accuracy: 0.903 | Precision: 0.960 | Recall: 0.889 | F1: 0.923 | ROC_AUC: 0.903
