Feature	Mean	STD
membrane glycoprotein	-0.000	0.012
envelope	0.000	0.000
ORF6	0.000	0.000
ORF7a	0.000	0.000
ORF8	0.000	0.000
ORF1ab	0.004	0.012
ORF3a	0.008	0.014
ORF10	0.020	0.012
surface glycoprotein	0.041	0.017
nucleocapsid phosphoprotein	0.077	0.025
ORF7b	0.268	0.077
